...........
----------------------------------------------------------------------
Ran 11 tests in 10.708s

OK
Name             Stmts   Miss Branch BrPart  Cover   Missing
------------------------------------------------------------
Collatz.py          47      0     20      0   100%
TestCollatz.py      44      0      0      0   100%
------------------------------------------------------------
TOTAL               91      0     20      0   100%
